Tarea 2
…
EstimacionesEscolaridadEntidades<-as_tibble(do.call(rbind,EscolaridadEntidad %>% group_by(NOM_EDO) %>%group_map(~sum(.x$Conteo)*MultinomCI(.x$Conteo,conf.level = 0.95))))

colnames(EstimacionesEscolaridadEntidades)<-c("est", "lwr.ci","upr.ci")

EscolaridadEntidad <- bind_cols(
  EscolaridadEntidad,
  EstimacionesEscolaridadEntidades
  )

EscolaridadEntidad

## # A tibble: 530 x 7
## # Groups:   NOM_EDO [32]
##    NOM_EDO     ESCOLARIDAD_PAREJA     Conteo Proporcin   est lwr.ci upr.ci
##    <fct>       <chr>                   <int>      <dbl> <dbl>  <dbl>  <dbl>
##  1 Aguascalie bsica-bsica             156 0.000295    156     75   239. 
##  2 Aguascalie bsica-media superior     420 0.000794    420.   339.  503. 
##  3 Aguascalie bsica-sin_escolaridad      5 0.00000946    5      0    87.5
##  4 Aguascalie bsica-superior            23 0.0000435    23      0   106. 
##  5 Aguascalie media superior-bsica     215 0.000407    215    134.  298. 
##  6 Aguascalie media superior-media    3190 0.00603    3190   3109. 3273. 
##  7 Aguascalie media superior-sin_es     10 0.0000189    10      0    92.5
##  8 Aguascalie media superior-superi    666 0.00126     666    585   749. 
##  9 Aguascalie other                      29 0.0000549    29      0   112. 
## 10 Aguascalie Sin escolaridad-bsica     10 0.0000189    10      0    92.5
## #  with 520 more rows
…
